<svg width="10" height="10" viewBox="0 0 10 10" fill="none" xmlns="http://www.w3.org/2000/svg">
<rect width="10" height="2.06923" fill="#725BC0"/>
<rect x="10" width="10" height="2.06923" transform="rotate(90 10 0)" fill="#725BC0"/>
<rect x="9.30469" y="2.23375" width="10.5033" height="2.07115" transform="rotate(135 9.30469 2.23375)" fill="#725BC0"/>
</svg>