<svg width="35" height="35" viewBox="0 0 35 35" fill="none" xmlns="http://www.w3.org/2000/svg">
<path d="M8.19893 2.54261C8.19893 3.19393 7.68472 3.74241 6.99912 3.74241C6.31352 3.74241 5.79932 3.19393 5.79932 2.54261C5.79932 1.89129 6.3478 1.3428 6.99912 1.3428C7.65044 1.3428 8.19893 1.89129 8.19893 2.54261Z" fill="#725BC0"/>
<path d="M5.14777 3.22821C5.14777 4.25661 4.29076 5.11362 3.26236 5.11362C2.23396 5.11362 1.37695 4.25661 1.37695 3.22821C1.37695 2.19981 2.23396 1.3428 3.26236 1.3428C4.29076 1.3428 5.14777 2.19981 5.14777 3.22821Z" fill="#725BC0"/>
<path d="M29.657 31.2517C29.657 32.0059 29.0399 32.6229 28.2858 32.6229C27.5316 32.6229 26.9146 32.0059 26.9146 31.2517C26.9146 30.4976 27.5316 29.8805 28.2858 29.8805C29.0399 29.8805 29.657 30.4976 29.657 31.2517Z" fill="#725BC0"/>
<g opacity="0.15">
<g opacity="0.15">
<path opacity="0.15" d="M17.0028 9.76984C14.0204 9.87268 11.5865 12.4094 11.5522 15.4261C11.5522 16.763 11.9979 18.0313 12.8549 19.0597" stroke="#9C9C9C" stroke-width="2.5" stroke-miterlimit="10" stroke-linecap="round" stroke-linejoin="round"/>
</g>
</g>
<path d="M22.0423 10.4212C20.6711 9.08424 18.8542 8.39863 16.9345 8.46719C13.3008 8.63859 10.2842 11.7238 10.2842 15.3918C10.2842 17.0372 10.8669 18.6141 11.8953 19.8482C13.4037 21.665 14.2264 21.8707 14.2264 24.236C14.2264 24.236 14.055 25.2987 14.8434 25.2987H19.6427C20.4311 25.2987 20.2597 24.236 20.2597 24.236C20.2597 21.9393 21.1167 21.7336 22.6936 19.7454C23.6877 18.5113 24.2019 17.0029 24.2019 15.4261C24.2019 13.5064 23.4477 11.7238 22.0423 10.4212Z" stroke="#B4A2EE" stroke-width="2.5" stroke-miterlimit="10" stroke-linecap="round" stroke-linejoin="round"/>
<path d="M15.186 29.1381H19.2996" stroke="#725BC0" stroke-width="2.5" stroke-miterlimit="10" stroke-linecap="round" stroke-linejoin="round"/>
<path d="M16.2144 32.9775H18.2712" stroke="#725BC0" stroke-width="2.5" stroke-miterlimit="10" stroke-linecap="round" stroke-linejoin="round"/>
<path d="M28.0757 15.4261H30.681" stroke="#B4A2EE" stroke-width="2.5" stroke-miterlimit="10" stroke-linecap="round" stroke-linejoin="round"/>
<path d="M17.2427 4.59355V1.98826" stroke="#B4A2EE" stroke-width="2.5" stroke-miterlimit="10" stroke-linecap="round" stroke-linejoin="round"/>
<path d="M24.853 7.78159L25.7786 6.85603" stroke="#B4A2EE" stroke-width="2.5" stroke-miterlimit="10" stroke-linecap="round" stroke-linejoin="round"/>
<path d="M6.41046 15.4261H3.80518" stroke="#B4A2EE" stroke-width="2.5" stroke-miterlimit="10" stroke-linecap="round" stroke-linejoin="round"/>
<path d="M9.56413 7.71303L8.67285 6.85603" stroke="#B4A2EE" stroke-width="2.5" stroke-miterlimit="10" stroke-linecap="round" stroke-linejoin="round"/>
</svg>
