<svg width="35" height="35" viewBox="0 0 35 35" fill="none" xmlns="http://www.w3.org/2000/svg">
<path opacity="0.15" d="M9.90674 17.3115C9.90674 17.7914 9.94102 18.237 10.0096 18.6827C10.2838 20.2596 11.038 21.7336 12.2035 22.8991C13.7118 24.3732 15.6658 25.1959 17.7912 25.1959C19.9165 25.1959 21.8705 24.3732 23.3788 22.8991C24.5101 21.7679 25.2642 20.3281 25.5728 18.7855" stroke="#B4A2EE" stroke-width="2.5" stroke-miterlimit="10" stroke-linecap="round" stroke-linejoin="round"/>
<path d="M4.71396 26.8012C5.36529 26.8012 5.91377 27.3154 5.91377 28.001C5.91377 28.6523 5.39957 29.2008 4.71396 29.2008C4.06264 29.2008 3.51416 28.6866 3.51416 28.001C3.51416 27.3497 4.02836 26.8012 4.71396 26.8012Z" fill="#725BC0"/>
<path d="M5.39947 29.8864C6.42787 29.8864 7.28487 30.7091 7.31915 31.7375C7.35343 32.7659 6.49643 33.6229 5.46803 33.6572C4.43962 33.6572 3.58262 32.8345 3.54834 31.8061C3.54834 30.7434 4.37106 29.8864 5.39947 29.8864Z" fill="#725BC0"/>
<path d="M29.1144 3.03429C29.8685 3.03429 30.4856 3.61706 30.4856 4.4055C30.4856 5.15966 29.9028 5.7767 29.1144 5.7767C28.3259 5.7767 27.7432 5.19394 27.7432 4.4055C27.7432 3.65134 28.3602 3.03429 29.1144 3.03429Z" fill="#725BC0"/>
<path d="M17.791 8.19297C15.3571 8.19297 13.0603 9.15281 11.312 10.8668C9.59803 12.5808 8.63818 14.8776 8.63818 17.3458C8.63818 19.7796 9.59803 22.0764 11.312 23.8247C13.026 25.5387 15.3228 26.4986 17.791 26.4986C20.2591 26.4986 22.5216 25.5387 24.2699 23.8247C25.9839 22.1107 26.9438 19.8139 26.9438 17.3458C26.9438 14.9119 25.9839 12.6151 24.2699 10.8668C22.5559 9.11853 20.2591 8.19297 17.791 8.19297Z" stroke="#725BC0" stroke-width="2.5" stroke-miterlimit="10" stroke-linecap="round" stroke-linejoin="round"/>
<path d="M26.9438 17.3115C26.9438 14.8776 25.984 12.5808 24.27 10.8325C22.556 9.11852 20.2592 8.15868 17.791 8.15868" stroke="#B4A2EE" stroke-width="2.5" stroke-miterlimit="10" stroke-linecap="round" stroke-linejoin="round"/>
<path d="M32.2231 17.3115H3.39355" stroke="#725BC0" stroke-width="2.5" stroke-miterlimit="10" stroke-linecap="round" stroke-linejoin="round"/>
<path d="M17.791 2.91381V31.7434" stroke="#725BC0" stroke-width="2.5" stroke-miterlimit="10" stroke-linecap="round" stroke-linejoin="round"/>
</svg>
